{
  "turret_gun_1":{
    "extends":"world_default",
    "path":[
      [1.0,2.5],
      [2.0,0],
      [1.0,-1.0],
      [-1.0,-1.0],
      [-2.0,0],
      [-1.0,2.5],
      [-0.7,0],
      [0.7,0]
    ],
    "faction":"black",
    "fillColor":"#222",
    "strokeColor":"#800",
    "collisionGroup":"background",
    "collisionMask":[],
    "bodyOptions":{
      "mass":0.1,
      "type":"dynamic"
    },
    "slots":{
      "weapons":
      [
        {
          "size":3,
          "offset":[1.0,2.5],
          "angle":0.0
        },
        {
          "size":3,
          "offset":[-1.0,2.5],
          "angle":0.0
        }
      ],
      "energy":
      [
        {
          "size":2
        }
      ],
      "health":
      [
        {
          "size":3
        }
      ]
    },
    "loadout":[
      {
        "in":"weapons",
        "index":0,
        "module":"weapon_3"
      },
      {
        "in":"weapons",
        "index":1,
        "module":"weapon_3"
      },
      {
        "in":"energy",
        "index":0,
        "module":"energy_2"
      },
      {
        "in":"health",
        "index":0,
        "module":"health_1"
      }
    ]
  }
}