{
  "background_default":{
    "extends":"actor_default",
    "type":"background",
    "collisionGroup":"background",
    "collisionMask":[],
    "bodyOptions":{
      "mass":0.01,
      "type":"static"
    }
  }
}