{
  "aiship_assasin":{
    "extends":"aiship_default",
    "faction":"black",
    "path":[[-2,0],[0,-1],[2,0],[1,2],[1,1],[0.5,0.5],[-0.5,0.5],[-1,1],[-1,2]],
    "fillColor":"#222",
    "strokeColor":"#800",
    "slots":{
      "weapons":
      [
        {
          "size":1,
          "offset":[1.0,2.0],
          "angle":0.0
        },
        {
          "size":1,
          "offset":[-1.0,2.0],
          "angle":0.0
        }
      ],
      "engines":
      [
        {
          "size":1
        }
      ],
      "energy":
      [
        {
          "size":1
        }
      ],
      "health":
      [
        {
          "size":1
        }
      ],
      "utility":
      [
        {
          "size":1
        }
      ]       
    },
    "loadout":[
      {
        "in":"weapons",
        "index":0,
        "module":"weapon_1"
      },
      {
        "in":"weapons",
        "index":1,
        "module":"weapon_1"
      },
      {
        "in":"health",
        "index":0,
        "module":"health_1"
      },
      {
        "in":"energy",
        "index":0,
        "module":"energy_1"
      }
    ],
    "fragments":[
      "fragment_3",
      "fragment_4",
      "fragment_3"
    ],
    "maxSpeed":40,
    "maxForce":80,
    "fireDistance":40
  }
}