{
  "ship_3_red":{
    "extends":"ship_default",
    "path":
    [
      [3.0,0.0],[5.5,0.0],[6.5,0.5],[7.5,1.5],[8.0,2.5],
      [8.5,5.0],[7.0,2.5],[6.0,3.5],[5.0,3.0],
      [4.25,6.0],[3.5,3.0],[2.5,3.5],[1.5,2.5],
      [0.0,5.0],[0.5,2.5],[1.0,1.5],[2.0,0.5]
    ],
    "faction":"red",
    "fillColor":"#ffa78e",
    "strokeColor":"#cd5052",
    "slots":{
      "weapons":
      [
        {
          "size":2,
          "offset":[0.0,5.0],
          "angle":-0.1
        },
        {
          "size":2,
          "offset":[2.0,3.0],
          "angle":0.0
        },
        {
          "size":2,
          "offset":[3.0,3.25],
          "angle":0.0
        },
        {
          "size":2,
          "offset":[5.5,3.25],
          "angle":0.0
        },
        {
          "size":2,
          "offset":[6.5,3.0],
          "angle":0.0
        },
        {
          "size":2,
          "offset":[8.5,5.0],
          "angle":0.1
        }
      ],
      "engines":
      [
        {
          "size":2
        }
      ],
      "energy":
      [
        {
          "size":2
        }
      ],
      "health":
      [
        {
          "size":2
        }
      ],
      "utility":
      [
        {
          "size":2
        }
      ]       
    },
    "loadout":[
      {
        "in":"weapons",
        "index":0,
        "module":"weapon_2x"
      },
      {
        "in":"weapons",
        "index":1,
        "module":"weapon_2"
      },
      {
        "in":"weapons",
        "index":2,
        "module":"weapon_2"
      },
      {
        "in":"weapons",
        "index":3,
        "module":"weapon_2"
      },
      {
        "in":"weapons",
        "index":4,
        "module":"weapon_2"
      },
      {
        "in":"weapons",
        "index":5,
        "module":"weapon_2x"
      },
      {
        "in":"health",
        "index":0,
        "module":"health_3"
      },
      {
        "in":"energy",
        "index":0,
        "module":"energy_2"
      },
      {
        "in":"engines",
        "index":0,
        "module":"engine_2"
      }
    ],
    "fragments":[
      "fragment_1_red",
      "fragment_2_red",
      "fragment_2_red",
      "fragment_1_red"
    ],
    "bodyOptions":{
      "mass":10
    }
  }
}