{
  "fragment_1_red":{
    "extends":"fragment_default",
    "path":[[2,0],[1,2],[1,1],[0.5,0.5]],
    "fillColor":"#CC3333",
    "strokeColor":"#FF0000",
    "collisionGroup":"ship",
    "collisionMask":[
      "ship",
      "projectile",
      "world"
    ],
    "lifetime":7
  }
}