{
  "projectile_2":{
    "extends":"projectile_default",
    "path":[[0,0],[0.1, 1.3],[0.15, 1.3],[0.15,0]],
    "fillColor":"#00C623",
    "strokeColor":"#00C623",
    "damage":20,
    "lifetime":2,
    "speed":40
  }
}